{
    "name": "Fxchange",
    "alias": "fxchange",
    "description": "",
    "keywords": [],
    "active": 1,
    "order": 1,
    "providers": [
        "Modules\\Fxchange\\Providers\\FxchangeServiceProvider",
        "Modules\\Fxchange\\Providers\\FxchangeEventServiceProvider",
        "Modules\\Fxchange\\Providers\\RouteServiceProvider",
        "Modules\\Fxchange\\Services\\Validation\\ValidationServiceProvider",
        "Modules\\Fxchange\\Providers\\ValidateServiceProvider"
        
    ],
    "aliases": {},
    "files": [
        
    ],
    "requires": []
}
